GEOID,N,RP475,RP1000,RP2500
8664546,700,0.586357125526504,0.707397469522705,0.86837769381012
8664547,726,0.483818063231583,0.580940255420151,0.710525521274261
8664548,718,0.402030954020157,0.479202279549408,0.582199105515289
8664549,729,0.370674142559433,0.440940866051712,0.534782418598404
8664556,699,0.470466622828598,0.561676034267273,0.683059701016693
