GEOID,LONG,LAT,SOIL,LIQ,LAND
8664546,166.45,-45.65,1.50,0.00,0.00
8664547,166.45,-45.75,1.50,0.00,0.00
8664548,166.45,-45.85,1.50,0.00,0.00
8664549,166.45,-45.95,1.50,0.00,0.00
8664556,166.55,-45.65,1.50,0.00,0.00

